153570 597830 470
20861 391409 443
508195 703057 509
127065 452803 449
748159 412963 509
711535 426155 509
261801 363049 441
978482 295311 525
650191 488164 509
578913 179588 470
357975 358841 379
230484 348218 443
165748 228243 386
173595 447621 449
201428 754331 509
524990 880952 525
501975 379140 449
703277 262339 509
790689 235414 509
280502 919595 525
431377 417744 418
827911 800675 450
972176 995229 427
200412 409820 443
85763 115680 354
357767 787876 509
780635 424835 509
253325 854238 525
747729 599975 509
806399 464020 509
99485 814610 509
445527 797057 509
409180 552044 470
278372 864510 525
611087 321661 470
637808 393251 509
287888 931311 525
772222 107921 509
175292 608215 470
72322 387784 443
621324 592521 447
651855 52466 509
282530 238483 407
584130 359216 470
506082 422266 444
991353 799383 525
487702 288096 449
498387 190243 449
845859 283485 525
233437 265828 407
360932 484879 449
364796 354337 410
900661 797945 525
271629 419107 449
564815 165840 470
462639 532309 470
815128 289643 509
725530 670802 504
264844 63791 443
672500 450680 509
7827 356956 443
458596 433012 400
672244 697217 442
292217 200126 443
807156 317098 509
611946 905420 525
925188 935934 476
611499 281443 470
184851 616818 470
130778 394066 443
805514 748670 468
953333 571798 525
668122 957602 525
45298 337099 443
350891 214404 443
96919 690239 509
46021 625351 470
975459 120395 525
381566 346338 423
673139 889219 525
79278 604143 470
642081 123168 509
28183 445179 449
772594 276771 509
131940 882321 525
530767 836765 509
351723 548161 470
528179 685785 509
30617 479428 449
432151 7451 449
51685 325982 443
548053 584920 434
743580 641092 504
579957 225611 470
391927 347291 436
514182 296302 470
256617 350534 441
845986 876343 432
347426 760901 509
989686 54561 525
771869 887828 525
20648 592500 470
692585 65546 509
453025 974366 525
808718 218033 509
122050 591423 470
81572 178178 383
422028 1484 449
349781 116745 443
376848 145789 443
424361 427142 356
461130 44387 449
385087 434645 449
856365 664152 525
162422 108315 383
288021 32 443
508069 925967 525
766997 603123 509
698750 913614 525
66407 69194 312
392996 562402 470
97413 411488 449
815709 21020 509
717534 570251 509
429313 381557 449
972826 923645 507
865673 105755 525
446111 679375 509
975598 516593 525
315563 960308 525
673700 695197 442
285301 824760 509
751183 615550 509
799906 555354 509
686066 999199 525
994979 727618 525
841453 155287 525
665722 406580 509
921299 914217 432
879663 139263 525
568776 556396 421
659612 140802 509
861067 105517 525
521105 116687 470
713760 862004 525
225157 95909 386
166476 746819 509
732201 791559 468
302993 266901 407
783481 456697 509
987720 548217 525
102927 282446 443
366592 14723 443
833790 398406 509
617472 246480 470
711032 264245 509
515695 983248 525
701339 18256 509
469389 272666 449
177672 145804 383
97870 483883 449
501412 467052 426
690102 786809 504
645968 19258 509
574811 367801 470
692217 111017 509
706156 804320 468
792083 420425 509
233416 295174 407
299907 180046 443
420942 30935 449
109192 693544 509
191171 575017 470
870012 884949 432
523802 156222 470
719931 977449 525
740295 377384 509
850888 510471 525
488822 874735 525
305689 379382 441
852927 383580 525
68013 348312 443
536142 206568 470
336139 113333 443
282098 386323 441
339328 975864 525
762383 196636 509
124368 300347 443
453234 597208 470
422586 746532 509
492093 458784 444
39263 510045 449
882895 980154 507
220491 282326 443
871845 239113 525
567677 990189 525
217768 957975 525
244388 395073 441
137821 607071 470
427584 810684 509
750326 129181 509
883805 839961 432
506946 173679 449
322105 93003 443
435771 713658 509
135377 57632 354
97701 697014 509
999093 81820 525
615875 733650 509
463898 497070 426
589970 201748 470
465764 406207 449
736234 430844 509
888051 280018 525
