646543 196632 509
40834 346575 443
223136 725677 509
351348 811583 509
7905 801580 509
879846 222250 525
598410 172630 470
527185 578506 452
199187 811634 509
268611 665519 509
246268 699002 509
526480 401719 470
764675 319007 509
773528 483710 509
204700 133748 383
555392 255904 470
252262 954417 525
181742 164770 365
508053 818516 509
460164 341667 449
676033 956217 525
394108 877201 525
205157 826461 509
499423 31586 449
957309 516692 525
89866 204432 383
229184 314920 443
728966 189145 509
766507 225891 509
671628 241319 509
867101 941003 507
762454 507593 509
85293 770531 509
713057 227885 509
299146 20909 443
436548 990971 525
309672 93591 443
228858 485988 449
925704 94220 525
573145 313879 470
707493 579140 509
943001 39744 525
665083 479181 509
813236 168203 509
974755 726161 525
251 752371 509
26043 558912 470
453525 260412 449
755064 865328 525
826461 49457 509
803972 5864 509
719842 792571 468
750415 108601 509
53816 503724 449
722758 162883 509
95661 76541 351
667107 279146 509
724335 726861 362
500999 255857 449
189471 488824 449
343951 464253 449
338861 175068 443
709327 247882 509
584729 979596 525
926465 80676 525
464814 474422 413
846513 101672 525
980020 256983 525
983944 236590 525
585068 640430 509
474765 382372 449
634260 293172 509
640754 111468 509
919383 200895 525
289407 771102 509
567674 801749 509
892126 635848 525
151098 690162 509
974820 54466 525
847200 437547 525
71707 573128 470
908487 576559 525
585741 910020 525
761288 355486 509
38665 146109 375
680098 342464 509
500070 727208 509
396058 822095 509
569615 665583 509
701897 846593 525
924326 908627 476
744720 946248 525
573380 769169 509
619354 351176 470
60737 524387 470
867143 209289 525
1564 730848 509
160583 846567 525
152999 252157 443
580572 938227 525
913951 206923 525
980176 930282 507
42491 622923 470
293244 102853 443
317637 5643 443
648065 866771 525
853301 244038 525
967603 414988 525
737250 199486 509
778678 449119 509
935864 846350 476
181085 270014 443
758065 608313 509
157144 245139 443
80562 325220 443
287035 412229 449
705065 498680 509
905662 861033 445
88909 259679 443
456341 62477 449
988987 502068 525
380347 712607 509
386015 300325 441
937650 911329 476
437541 239475 449
205552 999652 525
845752 840850 401
233271 928860 525
164735 790634 509
854301 228778 525
494621 386089 449
803758 215371 509
239694 961056 525
51858 696953 509
613062 505005 470
272146 769301 509
134851 362613 443
58916 683460 509
64153 491336 449
540676 718216 509
487246 52557 449
477365 254191 449
271678 769088 509
903918 828740 525
590875 555414 434
82008 806781 509
786618 477568 509
811482 173842 509
741481 286019 509
329338 15400 443
213972 645944 509
83317 415321 449
530603 596536 452
968719 600401 525
632886 10685 509
105702 704619 509
683957 328963 509
84764 233171 443
788832 946017 525
705296 446544 509
461899 461782 307
931303 808828 525
321069 785574 509
21541 333988 443
648370 382364 509
770467 833890 468
823733 414478 509
80705 766188 509
967171 320976 525
384779 51860 443
73991 897691 525
655323 287135 509
743284 772361 468
723006 862322 525
90578 913184 525
617338 536603 452
181243 404597 443
904536 3573 525
515654 716303 509
455693 826364 509
885187 46456 525
460682 913830 525
423447 331049 449
102253 285945 443
72104 254772 443
530715 629341 509
539525 117809 470
647790 614842 509
518151 546757 452
101495 188293 383
751020 726646 424
392296 852492 525
95664 289380 443
306220 571143 470
523685 805580 509
84148 27848 351
512280 6561 470
15093 960646 525
818408 308733 509
426814 157494 449
835840 570488 509
295058 777854 509
827065 55850 509
88645 210891 383
866684 752053 525
580219 498948 470
531063 742054 509
796717 844525 525
151609 143169 370
521789 212032 470
639413 27845 509
440931 734140 509
417031 239721 449
684152 703492 442
395434 591390 470
965101 617927 525
835093 912131 525
256564 319509 407
437510 266016 449
46823 842084 525
82437 713930 509
769667 677853 504
709950 354526 509
683946 91883 509
768699 562705 509
673808 184416 509
267813 145779 443
587961 973293 525
331415 290891 384
610682 460854 470
831212 256694 509
37225 495205 449
151393 707454 509
564796 341347 470
832029 703718 504
835714 964573 525
304468 916883 525
939089 158061 525
560828 544866 452
454110 184035 449
550241 229004 470
303137 72789 443
155394 354515 443
456561 507040 444
94560 473629 449
835957 15279 509
280525 92188 443
921547 168579 525
956860 296329 525
227845 596553 470
